{
    "KPlugin": {
        "Authors": [
            {
                "Email": "alexander.lohnau@gmx.de",
                "Name": "Alexander Lohnau",
                "Name[ar]": "Alexander Lohnau",
                "Name[az]": "Alexander Lohnau",
                "Name[be]": "Alexander Lohnau",
                "Name[bg]": "Alexander Lohnau",
                "Name[ca@valencia]": "Alexander Lohnau",
                "Name[ca]": "Alexander Lohnau",
                "Name[cs]": "Alexander Lohnau",
                "Name[da]": "Alexander Lohnau",
                "Name[de]": "Alexander Lohnau",
                "Name[en_GB]": "Alexander Lohnau",
                "Name[es]": "Alexander Lohnau",
                "Name[eu]": "Alexander Lohnau",
                "Name[fi]": "Alexander Lohnau",
                "Name[fr]": "Alexander Lohnau",
                "Name[hu]": "Alexander Lohnau",
                "Name[ia]": "Alexander Lohnau",
                "Name[id]": "Alexander Lohnau",
                "Name[is]": "Alexander Lohnau",
                "Name[it]": "Alexander Lohnau",
                "Name[ja]": "Alexander Lohnau",
                "Name[ka]": "Alexander Lohnau",
                "Name[ko]": "Alexander Lohnau",
                "Name[nl]": "Alexander Lohnau",
                "Name[nn]": "Alexander Lohnau",
                "Name[pl]": "Alexander Lohnau",
                "Name[pt]": "Alexander Lohnau",
                "Name[pt_BR]": "Alexander Lohnau",
                "Name[ro]": "Alexander Lohnau",
                "Name[ru]": "Alexander Lohnau",
                "Name[sk]": "Alexander Lohnau",
                "Name[sl]": "Alexander Lohnau",
                "Name[sv]": "Alexander Lohnau",
                "Name[ta]": "அலெக்சாண்டர் லொனாவ்",
                "Name[tr]": "Alexander Lohnau",
                "Name[uk]": "Alexander Lohnau",
                "Name[vi]": "Alexander Lohnau",
                "Name[x-test]": "xxAlexander Lohnauxx",
                "Name[zh_CN]": "Alexander Lohnau"
            }
        ],
        "Description": "Shows help information about runners when typing \"?\" or \"help\"",
        "Description[ar]": "تعرض معلومات المساعدة عن المشغلات عن كتابة \"؟\" أوس \"مساعدة\"",
        "Description[az]": "\"?\" və ya \"help\" yazdıqda KRunner haqqında məlumatı göstərir",
        "Description[be]": "Паказ даведкі пра праграмы пры ўводзе \"?\" або \"help\"",
        "Description[bg]": "Показва помощна информация за runners при въвеждане на \"?\" или \"help\"",
        "Description[ca@valencia]": "Mostra informació d'ajuda quan als executors en teclejar «?» o «ajuda»",
        "Description[ca]": "Mostra informació d'ajuda quan als executors en teclejar «?» o «ajuda»",
        "Description[en_GB]": "Shows help information about runners when typing \"?\" or \"help\"",
        "Description[es]": "Muestra información de ayuda sobre los lanzadores cuando se escribe «?» o «ayuda»",
        "Description[eu]": "Exekutatzaileei buruzko informazioa erakusten du «?» edo «help» tekleatzean",
        "Description[fi]": "Näyttää suorittimen ohjeen kirjoitettaessa ”?” tai ”help”",
        "Description[fr]": "Affiche des informations d'aide sur les lanceurs en saisissant « ? » ou « aide ».",
        "Description[hu]": "Súgóinformációk megjelenítése az indítókról „?” vagy „súgó” gépelésekor",
        "Description[ia]": "Monstra information de adjuta re executores quando on typa \"?\" o \"help\"",
        "Description[id]": "Menampilkan informasi bantuan tentang runners ketika mengetik \"?\" atau \"bantuan\"",
        "Description[it]": "Mostra le informazioni di aiuto sugli esecutori quando digiti «?» o «help»",
        "Description[ja]": "\"?\" もしくは \"help\" と入力したときヘルプ情報を表示します",
        "Description[ko]": "\"?\", \"도움말\"을 입력했을 때 실행기 정보 표시",
        "Description[nl]": "Toont help-informatie over runners bij typen van \"?\" of \"help\"",
        "Description[nn]": "Viser hjelpeinformasjon om køyrarar når du skriv «?» eller «help»",
        "Description[pl]": "Pokazuje pomoc o uruchamiaczach po wpisaniu \"?\" lub \"help\"",
        "Description[pt]": "Mostra informações de ajuda sobre os módulos de execução, ao escrever \"?\" ou \"help\"",
        "Description[pt_BR]": "Mostra informação de ajuda sobre os executores ao digitar \"?\" ou \"ajuda\"",
        "Description[ro]": "Arată informații de ajutor despre lansatori la tastarea „?” sau „help”",
        "Description[ru]": "Просмотр справочной информации о средствах поиска при вводе «?» или «help»",
        "Description[sk]": "Zobrazuje pomocné informácie o runneroch pri písaní \"?\" alebo \"pomoc\"",
        "Description[sl]": "Prikaži informacije za pomoč o zagonih kadar vtipkate \"?\" ali \"help\"",
        "Description[sv]": "Visar hjälpinformation om körprogram när \"?\" eller \"hjälp\" skrivs in",
        "Description[ta]": "\"?\" அல்லது \"help\" என்று உள்ளிடும்போது ரன்னர்களை பயன்படுத்த உதவும் விவரங்களை காட்டும்",
        "Description[tr]": "\"?\" ve \"help\" yazıldığında çalıştırıcılar hakkında yardım bilgisi gösterir",
        "Description[uk]": "Показує довідкові відомості щодо засобів запуску при введенні «?» або «help»",
        "Description[vi]": "Hiện thông tin trợ giúp về các trình chạy khi gõ \"?\" hoặc \"help\"",
        "Description[x-test]": "xxShows help information about runners when typing \"?\" or \"help\"xx",
        "Description[zh_CN]": "输入“?”或“help”时显示关于运行程序的帮助信息",
        "EnabledByDefault": true,
        "Icon": "help-contextual",
        "Name": "Help Runner",
        "Name[ar]": "مساعدة المشغّل",
        "Name[az]": "KRunner köməyi",
        "Name[be]": "Сродак запуску даведкі",
        "Name[bg]": "Помощ за Runner",
        "Name[ca@valencia]": "Executor d'ajuda",
        "Name[ca]": "Executor d'ajuda",
        "Name[da]": "Hjælp-runner",
        "Name[de]": "Hilfe",
        "Name[en_GB]": "Help Runner",
        "Name[es]": "Ayuda sobre lanzador",
        "Name[eu]": "Laguntza exekutatzailea",
        "Name[fi]": "Ohjekäynnistin",
        "Name[fr]": "Lanceur d'aide",
        "Name[hu]": "Indítósúgó",
        "Name[ia]": "Executor de adjuta",
        "Name[id]": "Bantuan Runner",
        "Name[is]": "Help Runner",
        "Name[it]": "Guida esecutore",
        "Name[ja]": "Runner の使い方",
        "Name[ka]": "Help Runner",
        "Name[ko]": "실행기 도움말",
        "Name[nl]": "Help van Runner",
        "Name[nn]": "Hjelpekøyrar",
        "Name[pa]": "ਮਦਦ ਕੇਰਨਰ",
        "Name[pl]": "Uruchamiacz pomocy",
        "Name[pt]": "Ajuda na Execução",
        "Name[pt_BR]": "Ajuda do executor",
        "Name[ro]": "Lansator de ajutor",
        "Name[ru]": "Средство поиска справки",
        "Name[sk]": "Help Runner",
        "Name[sl]": "Pomoč za Runner",
        "Name[sv]": "Hjälp om Kör program",
        "Name[ta]": "உதவி ரன்னர்",
        "Name[tr]": "Yardım Çalıştırıcısı",
        "Name[uk]": "Засіб надання довідки",
        "Name[vi]": "Trình chạy \"Trợ giúp\"",
        "Name[x-test]": "xxHelp Runnerxx",
        "Name[zh_CN]": "帮助运行程序",
        "ServiceTypes": [
            "Plasma/Runner"
        ]
    }
}
